CT~~CD,~CC^~CT~
^XA
^PW719
^BY2,3,32^FT29,47^BCN,,N,N
^FD>;{1447.ItemTag Number}^FS
^FT78,99^A0N,23,24^FH\^FD{1443.Product Name}^FS
^FO15,76^GB61,31,31^FS
^FT15,100^A0N,25,24^FR^FH\^FD{4116.RFID Tag Number}^FS
^FT54,71^A0N,28,28^FH\^FD{1447.ItemTag Number}^FS
^FT259,105^BQN,2,4
^FH\^FDMA,{1447.ItemTag Number}^FS
^FT349,40^A0N,34,33^FH\^FD{1451.Net Weight}gm^FS
^FT427,98^A0N,23,24^FH\^FD{1453.Size}^FS
^FT351,99^A0N,20,19^FH\^FDM:{4181.MakingChargetag}^FS
^FT351,70^A0N,20,19^FH\^FDV:{4180.Wastage Value}%^FS
^FT427,73^A0N,28,28^FH\^FD{1444.Purity Name}^FS
^PQ1,0,1,Y^XZ
